<svg width="23" height="23" viewBox="0 0 23 23" fill="currentColor" xmlns="http://www.w3.org/2000/svg">
<path d="M7.15875 20.5946C4.025 19.0996 1.7825 16.0617 1.4375 12.4583H0C0.48875 18.3617 5.42417 23 11.4521 23C11.6725 23 11.8737 22.9808 12.0846 22.9712L8.43333 19.3104L7.15875 20.5946ZM11.5479 0C11.3275 0 11.1263 0.0191667 10.9154 0.0383333L14.5667 3.68958L15.8413 2.415C18.975 3.90042 21.2175 6.93833 21.5625 10.5417H23C22.5112 4.63833 17.5758 0 11.5479 0ZM15.3333 13.4167H17.25V7.66667C17.25 7.15833 17.0481 6.67082 16.6886 6.31138C16.3292 5.95193 15.8417 5.75 15.3333 5.75H9.58333V7.66667H15.3333V13.4167ZM7.66667 15.3333V3.83333H5.75V5.75H3.83333V7.66667H5.75V15.3333C5.75 15.8417 5.95193 16.3292 6.31138 16.6886C6.67082 17.0481 7.15833 17.25 7.66667 17.25H15.3333V19.1667H17.25V17.25H19.1667V15.3333H7.66667Z" fill="currentColor"/>
</svg>
