<svg width="32" height="33" viewBox="0 0 32 33" fill="none" xmlns="http://www.w3.org/2000/svg">
<path d="M28.2334 18.0589C28.302 17.5449 28.3362 17.0137 28.3362 16.4483C28.3362 15.9 28.302 15.3518 28.2163 14.8378L31.6944 12.1306C31.8443 12.0071 31.9467 11.8354 31.9842 11.6448C32.0217 11.4543 31.992 11.2566 31.9 11.0855L28.6104 5.39711C28.5135 5.22502 28.3589 5.09277 28.1739 5.02378C27.9888 4.95479 27.7854 4.95351 27.5995 5.02017L23.5045 6.665C22.6479 6.01392 21.7398 5.46564 20.7289 5.05443L20.1121 0.702485C20.0817 0.506356 19.9821 0.327613 19.8312 0.198715C19.6803 0.0698164 19.4881 -0.000687925 19.2897 5.06025e-06H12.7103C12.2991 5.06025e-06 11.9736 0.291277 11.9051 0.702485L11.2882 5.05443C10.2774 5.46564 9.35214 6.03105 8.51259 6.665L4.41764 5.02017C4.0407 4.8831 3.61236 5.02017 3.40676 5.39711L0.13423 11.0855C-0.0713736 11.4453 -0.00283917 11.8908 0.339834 12.1306L3.81797 14.8378C3.7323 15.3518 3.66376 15.9172 3.66376 16.4483C3.66376 16.9795 3.69803 17.5449 3.7837 18.0589L0.305567 20.766C0.155688 20.8895 0.0532799 21.0612 0.0157895 21.2518C-0.0217009 21.4424 0.00804645 21.6401 0.099963 21.8112L3.38963 27.4995C3.59523 27.8765 4.02357 27.9964 4.40051 27.8765L8.49546 26.2316C9.35214 26.8827 10.2602 27.431 11.2711 27.8422L11.8879 32.1941C11.9736 32.6054 12.2991 32.8966 12.7103 32.8966H19.2897C19.7009 32.8966 20.0435 32.6054 20.0949 32.1941L20.7118 27.8422C21.7226 27.431 22.6479 26.8827 23.4874 26.2316L27.5824 27.8765C27.9593 28.0135 28.3876 27.8765 28.5932 27.4995L31.8829 21.8112C32.0885 21.4342 32.0028 21.0059 31.6773 20.766L28.2334 18.0589ZM16 22.6164C12.6075 22.6164 9.83188 19.8408 9.83188 16.4483C9.83188 13.0559 12.6075 10.2802 16 10.2802C19.3925 10.2802 22.1681 13.0559 22.1681 16.4483C22.1681 19.8408 19.3925 22.6164 16 22.6164Z" fill="currentColor"/>
</svg>
