<svg viewBox="0 0 55 75" fill="none" xmlns="http://www.w3.org/2000/svg">
<path d="M53 37.5C53 51.5833 41.5833 63 27.5 63C13.4167 63 2 51.5833 2 37.5C2 23.4167 13.4167 12 27.5 12C41.5833 12 53 23.4167 53 37.5Z" fill="black" fill-opacity="0.28" stroke="currentColor" stroke-width="4"/>
<path d="M53 37.5C53 51.5833 41.5833 63 27.5 63C13.4167 63 2 51.5833 2 37.5C2 23.4167 13.4167 12 27.5 12C41.5833 12 53 23.4167 53 37.5Z" stroke="currentColor" stroke-width="4"/>
<path d="M29.6875 35.875H43.5312V39.375H29.6875V54.4375H25.9062V39.375H12.3438V35.875H25.9062V21.3125H29.6875V35.875Z" fill="currentColor"/>
</svg>
