<svg width="24" height="24" viewBox="0 0 24 24" fill="currentColor" xmlns="http://www.w3.org/2000/svg">
<path d="M5.6999 4.20039C4.8719 4.20039 4.1999 4.87239 4.1999 5.70039V7.50039C4.1999 7.73909 4.10508 7.968 3.9363 8.13679C3.76752 8.30557 3.5386 8.40039 3.2999 8.40039C3.06121 8.40039 2.83229 8.30557 2.66351 8.13679C2.49472 7.968 2.3999 7.73909 2.3999 7.50039V5.70039C2.3999 4.82518 2.74758 3.98581 3.36645 3.36694C3.98532 2.74807 4.82469 2.40039 5.6999 2.40039H7.4999C7.7386 2.40039 7.96752 2.49521 8.1363 2.66399C8.30508 2.83278 8.3999 3.0617 8.3999 3.30039C8.3999 3.53909 8.30508 3.768 8.1363 3.93679C7.96752 4.10557 7.7386 4.20039 7.4999 4.20039H5.6999ZM5.6999 19.8004C4.8719 19.8004 4.1999 19.1284 4.1999 18.3004V16.5004C4.1999 16.2617 4.10508 16.0328 3.9363 15.864C3.76752 15.6952 3.5386 15.6004 3.2999 15.6004C3.06121 15.6004 2.83229 15.6952 2.66351 15.864C2.49472 16.0328 2.3999 16.2617 2.3999 16.5004V18.3004C2.3999 19.1756 2.74758 20.015 3.36645 20.6338C3.98532 21.2527 4.82469 21.6004 5.6999 21.6004H7.4999C7.7386 21.6004 7.96752 21.5056 8.1363 21.3368C8.30508 21.168 8.3999 20.9391 8.3999 20.7004C8.3999 20.4617 8.30508 20.2328 8.1363 20.064C7.96752 19.8952 7.7386 19.8004 7.4999 19.8004H5.6999ZM19.7999 5.70039C19.7999 4.87239 19.1279 4.20039 18.2999 4.20039H16.4999C16.2612 4.20039 16.0323 4.10557 15.8635 3.93679C15.6947 3.768 15.5999 3.53909 15.5999 3.30039C15.5999 3.0617 15.6947 2.83278 15.8635 2.66399C16.0323 2.49521 16.2612 2.40039 16.4999 2.40039H18.2999C19.1751 2.40039 20.0145 2.74807 20.6334 3.36694C21.2522 3.98581 21.5999 4.82518 21.5999 5.70039V7.50039C21.5999 7.73909 21.5051 7.968 21.3363 8.13679C21.1675 8.30557 20.9386 8.40039 20.6999 8.40039C20.4612 8.40039 20.2323 8.30557 20.0635 8.13679C19.8947 7.968 19.7999 7.73909 19.7999 7.50039V5.70039ZM18.2999 19.8004C19.1279 19.8004 19.7999 19.1284 19.7999 18.3004V16.5004C19.7999 16.2617 19.8947 16.0328 20.0635 15.864C20.2323 15.6952 20.4612 15.6004 20.6999 15.6004C20.9386 15.6004 21.1675 15.6952 21.3363 15.864C21.5051 16.0328 21.5999 16.2617 21.5999 16.5004V18.3004C21.5999 19.1756 21.2522 20.015 20.6334 20.6338C20.0145 21.2527 19.1751 21.6004 18.2999 21.6004H16.4999C16.2612 21.6004 16.0323 21.5056 15.8635 21.3368C15.6947 21.168 15.5999 20.9391 15.5999 20.7004C15.5999 20.4617 15.6947 20.2328 15.8635 20.064C16.0323 19.8952 16.2612 19.8004 16.4999 19.8004H18.2999ZM7.7999 6.00039C7.56121 6.00039 7.33229 6.09521 7.16351 6.26399C6.99472 6.43278 6.8999 6.6617 6.8999 6.90039V8.10039C6.8999 8.33909 6.99472 8.568 7.16351 8.73679C7.33229 8.90557 7.56121 9.00039 7.7999 9.00039C8.0386 9.00039 8.26752 8.90557 8.4363 8.73679C8.60508 8.568 8.6999 8.33909 8.6999 8.10039V7.80039H11.0999V16.2004H10.7999C10.5612 16.2004 10.3323 16.2952 10.1635 16.464C9.99472 16.6328 9.8999 16.8617 9.8999 17.1004C9.8999 17.3391 9.99472 17.568 10.1635 17.7368C10.3323 17.9056 10.5612 18.0004 10.7999 18.0004H13.1999C13.4386 18.0004 13.6675 17.9056 13.8363 17.7368C14.0051 17.568 14.0999 17.3391 14.0999 17.1004C14.0999 16.8617 14.0051 16.6328 13.8363 16.464C13.6675 16.2952 13.4386 16.2004 13.1999 16.2004H12.8999V7.80039H15.2999V8.10039C15.2999 8.33909 15.3947 8.568 15.5635 8.73679C15.7323 8.90557 15.9612 9.00039 16.1999 9.00039C16.4386 9.00039 16.6675 8.90557 16.8363 8.73679C17.0051 8.568 17.0999 8.33909 17.0999 8.10039V6.90039C17.0999 6.6617 17.0051 6.43278 16.8363 6.26399C16.6675 6.09521 16.4386 6.00039 16.1999 6.00039H7.7999Z" fill="currentColor"/>
</svg>
