<svg width="85" height="86" viewBox="0 0 85 86" fill="none" xmlns="http://www.w3.org/2000/svg">
<circle opacity="0.85" cx="42.5" cy="42.5" r="42.5" fill="#FCA311"/>
<path d="M42 23C37.9091 23 34.7131 24.647 32.4119 27.9409C30.1108 31.2349 28.9602 35.4455 28.9602 40.5729C28.9318 46.9432 30.8068 51.9929 34.5852 55.7219C35.0682 56.2191 35.2386 56.8561 35.0966 57.633L34.1165 59.8704C33.804 60.6162 33.3423 61.1989 32.7315 61.6184C32.1207 62.0379 30.8352 62.6361 28.875 63.4129C28.7898 63.444 26.9929 64.0811 23.4844 65.3241C19.9759 66.5671 18.108 67.2507 17.8807 67.375C15.4943 68.4626 13.9318 69.5969 13.1932 70.7777C12.3977 72.7354 12 77.6919 12 85.6471H72C72 77.6919 71.6023 72.7354 70.8068 70.7777C70.0682 69.5969 68.5057 68.4626 66.1193 67.375C65.892 67.2507 64.0241 66.5671 60.5156 65.3241C57.0071 64.0811 55.2102 63.444 55.125 63.4129C53.1648 62.6361 51.8793 62.0379 51.2685 61.6184C50.6577 61.1989 50.196 60.6162 49.8835 59.8704L48.9034 57.633C48.7614 56.8561 48.9318 56.2191 49.4148 55.7219C53.1932 51.9929 55.0682 46.9432 55.0398 40.5729C55.0398 35.4455 53.8892 31.2349 51.5881 27.9409C49.2869 24.647 46.0909 23 42 23Z" fill="#14213D"/>
</svg>
